{
  "version": "1.0",
  "defaultProvider": "cdnjs",
  "libraries": [
    {
      "provider": "unpkg",
      "library": "bootstrap@3.3.7",
      "destination": "wwwroot/lib/bootstrap/"
    },
    {
      "provider": "cdnjs",
      "library": "font-awesome@4.7.0",
      "destination": "wwwroot/lib/font-awesome/"
    },
    {
      "provider": "cdnjs",
      "library": "jquery-validate@1.19.0",
      "destination": "wwwroot/lib/jquery-validate/"
    }
    ,
    {
      "provider": "cdnjs",
      "library": "jquery-validation-unobtrusive@3.2.11",
      "destination": "wwwroot/lib/jquery-validation-unobtrusive/"
    }
  ,
{
  "provider": "cdnjs",
  "library": "jquery@3.3.1",
  "destination": "wwwroot/lib/jquery/"
}
]
}